<svg xmlns="http://www.w3.org/2000/svg" width="21.245" height="26.433" viewBox="0 0 21.245 26.433">
  <g id="Group_257" data-name="Group 257" transform="translate(1 1)">
    <rect id="Rectangle_5" data-name="Rectangle 5" width="19.245" height="24.433" rx="2" fill="none" stroke="#5dff00" stroke-linecap="round" stroke-linejoin="round" stroke-width="2"/>
    <rect id="Rectangle_6" data-name="Rectangle 6" width="6.694" height="1.673" transform="translate(2.678 5.188)" fill="#5dff00"/>
    <rect id="Rectangle_7" data-name="Rectangle 7" width="7.698" height="1.673" transform="translate(2.678 8.535)" fill="#5dff00"/>
    <rect id="Rectangle_8" data-name="Rectangle 8" width="13.881" height="1.673" transform="translate(2.678 11.882)" fill="#5dff00"/>
    <rect id="Rectangle_9" data-name="Rectangle 9" width="13.881" height="1.673" transform="translate(2.678 15.229)" fill="#5dff00"/>
    <rect id="Rectangle_10" data-name="Rectangle 10" width="13.881" height="1.673" transform="translate(2.678 18.576)" fill="#5dff00"/>
  </g>
</svg>
